Create a Date column in the dataset — add_Date_col • LightLogR
…
Datetime.colname
column name that contains the datetime. Defaults to
"Datetime" which is automatically correct for data imported with
LightLogR. Expects a symbol. Needs to be part of the dataset. Must
be of type POSIXct.

    Value

    a data.frame object identical to dataset but with the added
column of Date data

    Examples

sample.data.environment %>% add_Date_col()
#> # A tibble: 69,120 × 4
#> # Groups:   Id [2]
#>    Id          Datetime             MEDI Date      
#>    <fct>       <dttm>              <dbl> <date>    
#>  1 Participant 2023-08-29 00:00:04     0 2023-08-29
#>  2 Participant 2023-08-29 00:00:14     0 2023-08-29
#>  3 Participant 2023-08-29 00:00:24     0 2023-08-29
#>  4 Participant 2023-08-29 00:00:34     0 2023-08-29
#>  5 Participant 2023-08-29 00:00:44     0 2023-08-29
#>  6 Participant 2023-08-29 00:00:54     0 2023-08-29
#>  7 Participant 2023-08-29 00:01:04     0 2023-08-29
#>  8 Participant 2023-08-29 00:01:14     0 2023-08-29
#>  9 Participant 2023-08-29 00:01:24     0 2023-08-29
#> 10 Participant 2023-08-29 00:01:34     0 2023-08-29
#> # ℹ 69,110 more rows
…
