Filter Datetimes in a dataset. — filter_Datetime • LightLogR
…
sample.data.environment %>% filter_Date(end = "2023-08-31")
#> # A tibble: 34,560 × 3
#> # Groups:   Id [2]
#>    Id          Datetime             MEDI
#>    <fct>       <dttm>              <dbl>
#>  1 Participant 2023-08-29 00:00:04     0
#>  2 Participant 2023-08-29 00:00:14     0
#>  3 Participant 2023-08-29 00:00:24     0
#>  4 Participant 2023-08-29 00:00:34     0
#>  5 Participant 2023-08-29 00:00:44     0
#>  6 Participant 2023-08-29 00:00:54     0
#>  7 Participant 2023-08-29 00:01:04     0
#>  8 Participant 2023-08-29 00:01:14     0
#>  9 Participant 2023-08-29 00:01:24     0
#> 10 Participant 2023-08-29 00:01:34     0
#> # ℹ 34,550 more rows
…
