Import & cleaning • LightLogR
…
We can remove these partial days via
remove_partial_data(). We want to make sure to apply this
filter by.date, as it otherwise would outright remove
participants, but we want to simply remove single days. Before we remove
these days we can check which days are going to be removed.

data |> 
  remove_partial_data(
    handle.gaps = TRUE, MEDI, by.date = TRUE, threshold.missing = "2 hours",
    show.result = TRUE
    ) |> 
  filter(marked.for.removal)
#> # A tibble: 34 × 9
#> # Groups:   Id, .date [34]
#>    marked.for.removal Id    .date      duration             
#>    <lgl>              <fct> <date>     <Duration>           
#>  1 TRUE               201   2023-08-14 47080s (~13.08 hours)
#>  2 TRUE               201   2023-08-21 34950s (~9.71 hours) 
#>  3 TRUE               202   2023-08-14 46970s (~13.05 hours)
#>  4 TRUE               202   2023-08-21 34210s (~9.5 hours)  
#>  5 TRUE               204   2023-08-14 45030s (~12.51 hours)
#>  6 TRUE               204   2023-08-21 56380s (~15.66 hours)
#>  7 TRUE               205   2023-08-28 54730s (~15.2 hours) 
#>  8 TRUE               205   2023-09-04 37030s (~10.29 hours)
#>  9 TRUE               206   2023-08-28 51680s (~14.36 hours)
#> 10 TRUE               206   2023-09-04 34730s (~9.65 hours) 
#> # ℹ 24 more rows
#> # ℹ 5 more variables: missing <Duration>, total <Duration>, missing_pct <dbl>,
#> #   threshold <Duration>, interval <Duration>
…
